<?xml version="1.0" standalone="no"?>
<!DOCTYPE svg PUBLIC "-//W3C//DTD SVG 20010904//EN"
 "http://www.w3.org/TR/2001/REC-SVG-20010904/DTD/svg10.dtd">
<svg version="1.0" xmlns="http://www.w3.org/2000/svg"
 width="489.000000pt" height="489.000000pt" viewBox="0 0 489.000000 489.000000"
 preserveAspectRatio="xMidYMid meet">
<metadata>
Created by potrace 1.11, written by Peter Selinger 2001-2013
</metadata>
<g transform="translate(0.000000,489.000000) scale(0.100000,-0.100000)"
fill="#000000" stroke="none">
<path d="M2218 4870 c-116 -14 -162 -21 -206 -31 -23 -5 -59 -12 -79 -15 -21
-3 -76 -17 -123 -31 -47 -14 -92 -26 -100 -28 -87 -21 -378 -146 -392 -168 -4
-7 -8 -9 -8 -4 0 4 -18 -4 -40 -18 -22 -14 -42 -25 -45 -25 -12 0 -223 -145
-290 -198 -147 -118 -356 -329 -405 -408 -8 -13 -18 -24 -22 -24 -5 0 -8 -5
-8 -10 0 -6 -10 -22 -23 -36 -32 -34 -136 -203 -195 -315 -64 -122 -154 -344
-168 -413 -2 -10 -8 -33 -14 -51 -6 -18 -13 -42 -15 -54 -3 -11 -8 -31 -11
-43 -12 -52 -36 -190 -49 -288 -13 -102 -14 -465 -1 -550 3 -19 8 -51 12 -70
3 -19 7 -50 9 -67 3 -18 10 -54 16 -80 6 -27 12 -55 14 -63 2 -8 10 -42 19
-75 9 -33 19 -68 21 -78 2 -9 7 -22 10 -27 4 -6 9 -22 11 -37 3 -15 10 -33 16
-40 6 -7 7 -13 3 -13 -4 0 -3 -6 3 -12 6 -7 11 -17 12 -23 12 -53 158 -359
191 -399 5 -6 32 -47 60 -90 104 -162 288 -370 439 -497 35 -30 70 -58 76 -64
24 -22 168 -124 229 -162 74 -47 302 -163 319 -163 9 0 16 -4 16 -10 0 -5 6
-10 14 -10 8 0 36 -9 63 -21 26 -11 55 -22 63 -24 8 -2 44 -13 80 -25 36 -12
72 -23 80 -25 8 -2 51 -12 95 -23 44 -11 103 -23 130 -27 28 -4 59 -9 70 -12
60 -12 173 -18 360 -18 270 0 335 7 560 61 77 19 147 36 155 38 31 8 246 89
270 101 14 7 63 32 110 55 121 61 277 155 333 200 7 5 41 33 77 60 158 124
315 284 448 458 34 45 62 84 62 87 0 2 14 24 30 48 17 25 30 49 30 55 0 5 7
12 15 16 8 3 15 12 15 20 0 8 6 21 13 28 10 11 99 183 102 198 0 3 9 20 18 37
10 18 15 33 11 33 -4 0 -2 6 4 13 41 50 140 421 169 637 16 121 6 638 -13 671
-2 4 -6 24 -9 45 -4 22 -8 47 -11 56 -3 10 -7 30 -10 45 -15 89 -72 268 -134
423 -27 68 -132 274 -142 278 -5 2 -8 8 -8 13 0 11 -104 171 -125 192 -8 9
-15 18 -15 22 0 3 -5 11 -10 18 -23 28 -57 68 -90 108 -62 75 -183 195 -272
270 -136 116 -152 128 -165 129 -7 0 -13 4 -13 8 0 21 -285 185 -440 252 -67
29 -222 86 -260 96 -8 2 -58 15 -110 29 -52 14 -113 28 -135 31 -47 7 -58 9
-105 17 -82 15 -136 18 -325 21 -110 2 -230 0 -267 -4z m-930 -3465 c-3 -3 -9
2 -12 12 -6 14 -5 15 5 6 7 -7 10 -15 7 -18z"/>
</g>
</svg>
