{
  "name": "Health Monitor",
  "short_name": "Health Monitor",
  "start_url": "@routes.HomeController.list()",
  "icons": [
    {
      "src": "@routes.Assets.versioned("icons/android-chrome-192x192.png")",
      "sizes": "192x192",
      "type": "image/png"
    },
    {
      "src": "@routes.Assets.versioned("icons/android-chrome-512x512.png")",
      "sizes": "512x512",
      "type": "image/png"
    }
  ],
  "theme_color": "#ffffff",
  "background_color": "#ffffff",
  "display": "standalone"
}
